{
  "artists": {
    "href" : "https://api.spotify.com/v1/search?query=the+national&offset=0&limit=20&type=artist",
    "items" : [ {
      "external_urls" : {
        "spotify" : "https://open.spotify.com/artist/2cCUtGK9sDU2EoElnk0GNB"
      },
      "followers" : {
        "href" : null,
        "total" : 585281
      },
      "genres" : [ "chamber pop", "folk-pop", "freak folk", "indie folk", "indie pop", "indie rock", "indietronica", "lo-fi", "singer-songwriter", "stomp and holler" ],
      "href" : "https://api.spotify.com/v1/artists/2cCUtGK9sDU2EoElnk0GNB",
      "id" : "2cCUtGK9sDU2EoElnk0GNB",
      "images" : [ {
        "height" : 1000,
        "url" : "https://i.scdn.co/image/320174dd023c32ea29e5e11fd5cc7df4c91a3b30",
        "width" : 1000
      }, {
        "height" : 640,
        "url" : "https://i.scdn.co/image/00124bd035cca0cda910a59a9c614b70a6971193",
        "width" : 640
      }, {
        "height" : 200,
        "url" : "https://i.scdn.co/image/9ccfff8d1bbf4f75aad9015ed02c7e09acc0376f",
        "width" : 200
      }, {
        "height" : 64,
        "url" : "https://i.scdn.co/image/d3bcede4069d375649159e4da90fcab4638a19e5",
        "width" : 64
      } ],
      "name" : "The national",
      "popularity" : 69,
      "type" : "artist",
      "uri" : "spotify:artist:2cCUtGK9sDU2EoElnk0GNB"
    }, {
      "external_urls" : {
        "spotify" : "https://open.spotify.com/artist/2JMtxA2S9SNUlqBlkDtXm6"
      },
      "followers" : {
        "href" : null,
        "total" : 12063
      },
      "genres" : [ "acoustic pop", "indiecoustica", "new americana", "stomp and holler" ],
      "href" : "https://api.spotify.com/v1/artists/2JMtxA2S9SNUlqBlkDtXm6",
      "id" : "2JMtxA2S9SNUlqBlkDtXm6",
      "images" : [ {
        "height" : 640,
        "url" : "https://i.scdn.co/image/65b9fcdcf8d1d25e565d24ad7c449967decfdcc3",
        "width" : 635
      }, {
        "height" : 320,
        "url" : "https://i.scdn.co/image/5a35fcc387f14ab7a0d5936feeb70777acf40993",
        "width" : 318
      }, {
        "height" : 160,
        "url" : "https://i.scdn.co/image/2d33f109653ea179b1e3d688e901bdfd87b3c6dd",
        "width" : 159
      } ],
      "name" : "The National Parks",
      "popularity" : 49,
      "type" : "artist",
      "uri" : "spotify:artist:2JMtxA2S9SNUlqBlkDtXm6"
    }, {
      "external_urls" : {
        "spotify" : "https://open.spotify.com/artist/7Aj7z1h5SeHNAJ2I7wS6Vo"
      },
      "followers" : {
        "href" : null,
        "total" : 65
      },
      "genres" : [ ],
      "href" : "https://api.spotify.com/v1/artists/7Aj7z1h5SeHNAJ2I7wS6Vo",
      "id" : "7Aj7z1h5SeHNAJ2I7wS6Vo",
      "images" : [ ],
      "name" : "The National Orchestra for Arabic Music",
      "popularity" : 39,
      "type" : "artist",
      "uri" : "spotify:artist:7Aj7z1h5SeHNAJ2I7wS6Vo"
    }, {
      "external_urls" : {
        "spotify" : "https://open.spotify.com/artist/5ddCGRkw1N2uWAsfeHVL8D"
      },
      "followers" : {
        "href" : null,
        "total" : 432
      },
      "genres" : [ ],
      "href" : "https://api.spotify.com/v1/artists/5ddCGRkw1N2uWAsfeHVL8D",
      "id" : "5ddCGRkw1N2uWAsfeHVL8D",
      "images" : [ ],
      "name" : "Orchestra of the Welsh National Opera",
      "popularity" : 42,
      "type" : "artist",
      "uri" : "spotify:artist:5ddCGRkw1N2uWAsfeHVL8D"
    }, {
      "external_urls" : {
        "spotify" : "https://open.spotify.com/artist/7hz41KzAPU4K0qUXDCc2ki"
      },
      "followers" : {
        "href" : null,
        "total" : 1485
      },
      "genres" : [ "choral" ],
      "href" : "https://api.spotify.com/v1/artists/7hz41KzAPU4K0qUXDCc2ki",
      "id" : "7hz41KzAPU4K0qUXDCc2ki",
      "images" : [ {
        "height" : 640,
        "url" : "https://i.scdn.co/image/d8c3e129f059e884fdbccba5740e4f1677b758e3",
        "width" : 640
      }, {
        "height" : 300,
        "url" : "https://i.scdn.co/image/84e14594e2dfd41a393a8d6584a59e604bcfa77f",
        "width" : 300
      }, {
        "height" : 64,
        "url" : "https://i.scdn.co/image/900a4abc8456ece0f4fcb33dd0ff99d1350b4527",
        "width" : 64
      } ],
      "name" : "The National Lutheran Choir",
      "popularity" : 27,
      "type" : "artist",
      "uri" : "spotify:artist:7hz41KzAPU4K0qUXDCc2ki"
    }, {
      "external_urls" : {
        "spotify" : "https://open.spotify.com/artist/5AyKFVzgnsoARpNBtNUWKt"
      },
      "followers" : {
        "href" : null,
        "total" : 46
      },
      "genres" : [ ],
      "href" : "https://api.spotify.com/v1/artists/5AyKFVzgnsoARpNBtNUWKt",
      "id" : "5AyKFVzgnsoARpNBtNUWKt",
      "images" : [ {
        "height" : 640,
        "url" : "https://i.scdn.co/image/32f741aae2d8eba2ce18c639395253e48259c75f",
        "width" : 640
      }, {
        "height" : 300,
        "url" : "https://i.scdn.co/image/c9fa9d54aafb2eaae4010c187f534f312217e2ff",
        "width" : 300
      }, {
        "height" : 64,
        "url" : "https://i.scdn.co/image/d47b094ab83a3b25ca8c05882032533e593685c9",
        "width" : 64
      } ],
      "name" : "The National Flute Choir & Amy Rice Blumenthal",
      "popularity" : 27,
      "type" : "artist",
      "uri" : "spotify:artist:5AyKFVzgnsoARpNBtNUWKt"
    }, {
      "external_urls" : {
        "spotify" : "https://open.spotify.com/artist/1WilkawN9Wey0TVbaHjD6P"
      },
      "followers" : {
        "href" : null,
        "total" : 25
      },
      "genres" : [ ],
      "href" : "https://api.spotify.com/v1/artists/1WilkawN9Wey0TVbaHjD6P",
      "id" : "1WilkawN9Wey0TVbaHjD6P",
      "images" : [ ],
      "name" : "The National Youth Choir of Wales",
      "popularity" : 34,
      "type" : "artist",
      "uri" : "spotify:artist:1WilkawN9Wey0TVbaHjD6P"
    }, {
      "external_urls" : {
        "spotify" : "https://open.spotify.com/artist/5jWYLJVpsGrYF7rGwiqT2U"
      },
      "followers" : {
        "href" : null,
        "total" : 422
      },
      "genres" : [ ],
      "href" : "https://api.spotify.com/v1/artists/5jWYLJVpsGrYF7rGwiqT2U",
      "id" : "5jWYLJVpsGrYF7rGwiqT2U",
      "images" : [ {
        "height" : 640,
        "url" : "https://i.scdn.co/image/8774e4364a0d70d4166b2f7ed3f39313a561975c",
        "width" : 640
      }, {
        "height" : 300,
        "url" : "https://i.scdn.co/image/acf4dfcb773b9e20b571d0bb2bd13fb75475a06c",
        "width" : 300
      }, {
        "height" : 64,
        "url" : "https://i.scdn.co/image/296dcbae4df2e81d8dee22f0c79a236891e39488",
        "width" : 64
      } ],
      "name" : "The National Anthems Orchestra",
      "popularity" : 23,
      "type" : "artist",
      "uri" : "spotify:artist:5jWYLJVpsGrYF7rGwiqT2U"
    }, {
      "external_urls" : {
        "spotify" : "https://open.spotify.com/artist/14eSTi8caT2jb9blro00o0"
      },
      "followers" : {
        "href" : null,
        "total" : 48
      },
      "genres" : [ ],
      "href" : "https://api.spotify.com/v1/artists/14eSTi8caT2jb9blro00o0",
      "id" : "14eSTi8caT2jb9blro00o0",
      "images" : [ ],
      "name" : "Chorus of the Welsh National Opera",
      "popularity" : 28,
      "type" : "artist",
      "uri" : "spotify:artist:14eSTi8caT2jb9blro00o0"
    }, {
      "external_urls" : {
        "spotify" : "https://open.spotify.com/artist/6O4DiPLe7X4gQsneZGjxZn"
      },
      "followers" : {
        "href" : null,
        "total" : 0
      },
      "genres" : [ ],
      "href" : "https://api.spotify.com/v1/artists/6O4DiPLe7X4gQsneZGjxZn",
      "id" : "6O4DiPLe7X4gQsneZGjxZn",
      "images" : [ ],
      "name" : "National Radio Orchestra of The Netherlands",
      "popularity" : 25,
      "type" : "artist",
      "uri" : "spotify:artist:6O4DiPLe7X4gQsneZGjxZn"
    }, {
      "external_urls" : {
        "spotify" : "https://open.spotify.com/artist/29vzBFKyz1ZVdDonFisDyG"
      },
      "followers" : {
        "href" : null,
        "total" : 4
      },
      "genres" : [ ],
      "href" : "https://api.spotify.com/v1/artists/29vzBFKyz1ZVdDonFisDyG",
      "id" : "29vzBFKyz1ZVdDonFisDyG",
      "images" : [ ],
      "name" : "The Danish National Concert Choir",
      "popularity" : 14,
      "type" : "artist",
      "uri" : "spotify:artist:29vzBFKyz1ZVdDonFisDyG"
    }, {
      "external_urls" : {
        "spotify" : "https://open.spotify.com/artist/2SOpvC0nyRHWcG6BswDQQu"
      },
      "followers" : {
        "href" : null,
        "total" : 10
      },
      "genres" : [ ],
      "href" : "https://api.spotify.com/v1/artists/2SOpvC0nyRHWcG6BswDQQu",
      "id" : "2SOpvC0nyRHWcG6BswDQQu",
      "images" : [ ],
      "name" : "The Danish National Concert Orchestra",
      "popularity" : 14,
      "type" : "artist",
      "uri" : "spotify:artist:2SOpvC0nyRHWcG6BswDQQu"
    }, {
      "external_urls" : {
        "spotify" : "https://open.spotify.com/artist/2aBvmXE3sKJAYX0bZT1iab"
      },
      "followers" : {
        "href" : null,
        "total" : 2
      },
      "genres" : [ ],
      "href" : "https://api.spotify.com/v1/artists/2aBvmXE3sKJAYX0bZT1iab",
      "id" : "2aBvmXE3sKJAYX0bZT1iab",
      "images" : [ {
        "height" : 640,
        "url" : "https://i.scdn.co/image/35a664c6ebf932ac32e52d407fcf5e16ddf940bb",
        "width" : 640
      }, {
        "height" : 300,
        "url" : "https://i.scdn.co/image/5ce960d6f62d8c7d1c656374297e6cc135d20fd2",
        "width" : 300
      }, {
        "height" : 64,
        "url" : "https://i.scdn.co/image/4213183fd8db04e50a107ce790cfc1e896380455",
        "width" : 64
      } ],
      "name" : "The DJ National",
      "popularity" : 11,
      "type" : "artist",
      "uri" : "spotify:artist:2aBvmXE3sKJAYX0bZT1iab"
    }, {
      "external_urls" : {
        "spotify" : "https://open.spotify.com/artist/23AcFWoCqclc6gBvicWS6Y"
      },
      "followers" : {
        "href" : null,
        "total" : 13
      },
      "genres" : [ ],
      "href" : "https://api.spotify.com/v1/artists/23AcFWoCqclc6gBvicWS6Y",
      "id" : "23AcFWoCqclc6gBvicWS6Y",
      "images" : [ {
        "height" : 640,
        "url" : "https://i.scdn.co/image/19101063d0d9c7a119058a899b7a58cc423571db",
        "width" : 640
      }, {
        "height" : 300,
        "url" : "https://i.scdn.co/image/68d085c002a8f5dfcdadf398e1938493a290f8fe",
        "width" : 300
      }, {
        "height" : 64,
        "url" : "https://i.scdn.co/image/763be19e8bd854fbda38e3c8f6e5ace4ba1dc6f2",
        "width" : 64
      } ],
      "name" : "The Orchestra National De La Radiodiffusion Francaise",
      "popularity" : 23,
      "type" : "artist",
      "uri" : "spotify:artist:23AcFWoCqclc6gBvicWS6Y"
    }, {
      "external_urls" : {
        "spotify" : "https://open.spotify.com/artist/6aml1LJGOFx5DzuoAMxS30"
      },
      "followers" : {
        "href" : null,
        "total" : 33
      },
      "genres" : [ ],
      "href" : "https://api.spotify.com/v1/artists/6aml1LJGOFx5DzuoAMxS30",
      "id" : "6aml1LJGOFx5DzuoAMxS30",
      "images" : [ ],
      "name" : "The Warsaw Philharmonic National Orchestra of Poland",
      "popularity" : 21,
      "type" : "artist",
      "uri" : "spotify:artist:6aml1LJGOFx5DzuoAMxS30"
    }, {
      "external_urls" : {
        "spotify" : "https://open.spotify.com/artist/1X8RgTdpMM8Uj1Q81LXrMB"
      },
      "followers" : {
        "href" : null,
        "total" : 38
      },
      "genres" : [ ],
      "href" : "https://api.spotify.com/v1/artists/1X8RgTdpMM8Uj1Q81LXrMB",
      "id" : "1X8RgTdpMM8Uj1Q81LXrMB",
      "images" : [ {
        "height" : 640,
        "url" : "https://i.scdn.co/image/113543ca7f9c95f5e42c8e9ef9195a9103d2b12e",
        "width" : 640
      }, {
        "height" : 300,
        "url" : "https://i.scdn.co/image/b0d81b41bb2a83277125609e3f1de4e0c88368dd",
        "width" : 300
      }, {
        "height" : 64,
        "url" : "https://i.scdn.co/image/fade82ffb052ffd49912740050ab4615788e848c",
        "width" : 64
      } ],
      "name" : "The Slovak National Symphony Orchestra",
      "popularity" : 25,
      "type" : "artist",
      "uri" : "spotify:artist:1X8RgTdpMM8Uj1Q81LXrMB"
    }, {
      "external_urls" : {
        "spotify" : "https://open.spotify.com/artist/6ipTwotNsgrydf2BwQdDAX"
      },
      "followers" : {
        "href" : null,
        "total" : 7
      },
      "genres" : [ ],
      "href" : "https://api.spotify.com/v1/artists/6ipTwotNsgrydf2BwQdDAX",
      "id" : "6ipTwotNsgrydf2BwQdDAX",
      "images" : [ {
        "height" : 640,
        "url" : "https://i.scdn.co/image/17b36dd87e6eb9982a7f74d6bf0d5ef35e1a16af",
        "width" : 640
      }, {
        "height" : 300,
        "url" : "https://i.scdn.co/image/2ac1990b0f3881707699295dfbf1459ceed8f164",
        "width" : 300
      }, {
        "height" : 64,
        "url" : "https://i.scdn.co/image/4bb9305d09fc7159680ef01a905cb1f34124b558",
        "width" : 64
      } ],
      "name" : "The Warsaw National Philharmonic Orchestra",
      "popularity" : 12,
      "type" : "artist",
      "uri" : "spotify:artist:6ipTwotNsgrydf2BwQdDAX"
    }, {
      "external_urls" : {
        "spotify" : "https://open.spotify.com/artist/6wTnWjYuVAauZgTDOW6ovI"
      },
      "followers" : {
        "href" : null,
        "total" : 20
      },
      "genres" : [ ],
      "href" : "https://api.spotify.com/v1/artists/6wTnWjYuVAauZgTDOW6ovI",
      "id" : "6wTnWjYuVAauZgTDOW6ovI",
      "images" : [ ],
      "name" : "The National Bolshoï Orchestra",
      "popularity" : 11,
      "type" : "artist",
      "uri" : "spotify:artist:6wTnWjYuVAauZgTDOW6ovI"
    }, {
      "external_urls" : {
        "spotify" : "https://open.spotify.com/artist/08xBftDfAD7CMC51uxUuZF"
      },
      "followers" : {
        "href" : null,
        "total" : 42
      },
      "genres" : [ ],
      "href" : "https://api.spotify.com/v1/artists/08xBftDfAD7CMC51uxUuZF",
      "id" : "08xBftDfAD7CMC51uxUuZF",
      "images" : [ ],
      "name" : "The First National Band",
      "popularity" : 19,
      "type" : "artist",
      "uri" : "spotify:artist:08xBftDfAD7CMC51uxUuZF"
    }, {
      "external_urls" : {
        "spotify" : "https://open.spotify.com/artist/7FiY74BSvUlcSuysg1fNq0"
      },
      "followers" : {
        "href" : null,
        "total" : 99
      },
      "genres" : [ ],
      "href" : "https://api.spotify.com/v1/artists/7FiY74BSvUlcSuysg1fNq0",
      "id" : "7FiY74BSvUlcSuysg1fNq0",
      "images" : [ {
        "height" : 640,
        "url" : "https://i.scdn.co/image/dd2d7bad62d1bb2b2b305166f6a4724d04a8a739",
        "width" : 640
      }, {
        "height" : 300,
        "url" : "https://i.scdn.co/image/8a1a36524581f2344a3df1b4eef0aac2713d6baa",
        "width" : 300
      }, {
        "height" : 64,
        "url" : "https://i.scdn.co/image/5cb68570e29ffbaf68959e1507f08bd7b0ab6aca",
        "width" : 64
      } ],
      "name" : "The National Reserve",
      "popularity" : 6,
      "type" : "artist",
      "uri" : "spotify:artist:7FiY74BSvUlcSuysg1fNq0"
    } ],
    "limit" : 20,
    "next" : "https://api.spotify.com/v1/search?query=the+national&offset=20&limit=20&type=artist",
    "offset" : 0,
    "previous" : null,
    "total" : 246
  }
}